D:\Projects\spring-boot-dbup-master\mysql\src\main\java\com\test\mysql\service\DepartmentService.java
D:\Projects\spring-boot-dbup-master\mysql\src\main\java\com\test\mysql\model\DepartmentQo.java
D:\Projects\spring-boot-dbup-master\mysql\src\main\java\com\test\mysql\entity\Role.java
D:\Projects\spring-boot-dbup-master\mysql\src\main\java\com\test\mysql\redis\UserRedis.java
D:\Projects\spring-boot-dbup-master\mysql\src\main\java\com\test\mysql\repository\UserRepository.java
D:\Projects\spring-boot-dbup-master\mysql\src\main\java\com\test\mysql\redis\DepartmentRedis.java
D:\Projects\spring-boot-dbup-master\mysql\src\main\java\com\test\mysql\model\UserQo.java
D:\Projects\spring-boot-dbup-master\mysql\src\main\java\com\test\mysql\service\UserService.java
D:\Projects\spring-boot-dbup-master\mysql\src\main\java\com\test\mysql\entity\User.java
D:\Projects\spring-boot-dbup-master\mysql\src\main\java\com\test\mysql\service\RoleService.java
D:\Projects\spring-boot-dbup-master\mysql\src\main\java\com\test\mysql\model\PageQo.java
D:\Projects\spring-boot-dbup-master\mysql\src\main\java\com\test\mysql\redis\RoleRedis.java
D:\Projects\spring-boot-dbup-master\mysql\src\main\java\com\test\mysql\entity\Department.java
D:\Projects\spring-boot-dbup-master\mysql\src\main\java\com\test\mysql\repository\DepartmentRepository.java
D:\Projects\spring-boot-dbup-master\mysql\src\main\java\com\test\mysql\model\RoleQo.java
D:\Projects\spring-boot-dbup-master\mysql\src\main\java\com\test\mysql\repository\RoleRepository.java
